-------------------------------------------------------------------------------
Test set: com.bddinaction.junit.WhenEarningStatusFromFrequentFlyerPoints
-------------------------------------------------------------------------------
Tests run: 3, Failures: 0, Errors: 0, Skipped: 0, Time elapsed: 0.001 sec - in com.bddinaction.junit.WhenEarningStatusFromFrequentFlyerPoints
